﻿08.08.2019 17:10;09.08.2019 17:14;10.08.2019 17:18;;
What is the most important goal planned for the week?;What have you accomplished yesterday?;What have you accomplished yesterday?;;
Please explain the task in more detail and the steps necessary?;What was important about that task?;What was important about that task?;;
;;;;
;;;;
;;;;
;;;;
;;;;
;;;;
;;;;
;;;;
